Chapter_10_20191002_144_Park.utf8.md
…
##  ggplot2 3.2.1      purrr   0.3.2
##  tibble  2.1.3      dplyr   0.8.3
##  tidyr   1.0.0      stringr 1.4.0
##  readr   1.3.1      forcats 0.4.0

##  Conflicts  tidyverse_conflicts() 
##  dplyr::filter() masks stats::filter()
##  dplyr::lag()    masks stats::lag()

library(dslabs)
data(gapminder)
gapminder %>% as_tibble()

## # A tibble: 10,545 x 9
##    country  year infant_mortality life_expectancy fertility population
##    <fct>   <int>            <dbl>           <dbl>     <dbl>      <dbl>
##  1 Albania  1960            115.             62.9      6.19    1636054
##  2 Algeria  1960            148.             47.5      7.65   11124892
##  3 Angola   1960            208              36.0      7.32    5270844
##  4 Antigu  1960             NA              63.0      4.43      54681
##  5 Argent  1960             59.9            65.4      3.11   20619075
##  6 Armenia  1960             NA              66.9      4.55    1867396
##  7 Aruba    1960             NA              65.7      4.82      54208
##  8 Austra  1960             20.3            70.9      3.45   10292328
##  9 Austria  1960             37.3            68.8      2.7     7065525
## 10 Azerba  1960             NA              61.3      5.57    3897889
## #  with 10,535 more rows, and 3 more variables: gdp <dbl>,
## #   continent <fct>, region <fct>
…
